{
  "user": {
    "user_id": "234323",
    "recovery_id": "8765432",
    "recovery_questions": [
      {
        "question_id": "242",
        "question": "My question?"
      },
      {
        "question_id": "644",
        "question": "My next question?"
      },
      {
        "question_id": "222",
        "question": "My last question?"
      }
    ]

  },
  "status": 200
}